<svg width="8" height="5" viewBox="0 0 8 5" fill="none" xmlns="http://www.w3.org/2000/svg">
<path d="M3.64644 4.21775C3.84171 4.41301 4.15829 4.41301 4.35355 4.21775L7.53554 1.03577C7.7308 0.840512 7.7308 0.52393 7.53554 0.328667C7.34028 0.133405 7.02369 0.133405 6.82843 0.328667L4 3.15709L1.17158 0.328661C0.976315 0.133398 0.659732 0.133398 0.46447 0.32866C0.269207 0.523922 0.269207 0.840504 0.464469 1.03577L3.64644 4.21775ZM3.5 3L3.5 3.8642L4.5 3.8642L4.5 3L3.5 3Z" fill="#4A4A4A"/>
</svg>
